JINGHAN LIU’s Website
…
  separate('date', c( 'year','month','day')) %>% 
  drop_na() %>% 
  mutate(
    prcp = as.numeric(prcp),
    snow = as.numeric(snow),
    snwd = as.numeric(snwd), 
    tmax = as.numeric(tmax), 
    tmin = as.numeric(tmin), 
    tmax = tmax/10,
    prcp =  prcp/10,
    tmin = tmin/10) %>% 
 sample_n(1000) 
ny_noaa

## # A tibble: 1,000 x 9
##    id          year  month day    prcp  snow  snwd  tmax  tmin
##    <chr>       <chr> <chr> <chr> <dbl> <dbl> <dbl> <dbl> <dbl>
##  1 USC00304174 1989  01    10      1.3    38    25  -3.3 -13.9
##  2 USC00300343 1988  10    24      0.8     0     0  10     1.7
##  3 USC00307484 1982  03    27      0.5    13   102   2.2  -9.4
##  4 USC00300220 1993  09    16      4.6     0     0  11.7   7.8
##  5 USC00301436 2000  11    15      0       0     0   3.9  -1.7
##  6 USC00300343 1985  07    03      0       0     0  28.3  16.7
##  7 USC00308910 1988  10    09      0       0     0   8.9  -1.1
##  8 USC00307633 1987  07    11      0       0     0  28.9  21.1
##  9 USC00308739 1981  04    02      4.1     0     0  11.7   4.4
## 10 USC00307633 1986  11    18      0       0     0  10     6.1
## # ... with 990 more rows
…
